log: node=4 ip=10.0.0.4
[['10.0.0.4', '10.0.0.8', '10.0.0.7', '10.0.0.5', '10.0.0.2'], '10.0.0.10']str(sorted(mpr_nodes))
['10.0.0.10', '10.0.0.4', '10.0.0.5', '10.0.0.7', '10.0.0.8']str(sorted(mpr_selector_nodes))
['10.0.0.10', '10.0.0.2', '10.0.0.7', '10.0.0.8']str(sorted(neighbor_nodes))
[]str(sorted(executed_nodes))
[]str(sorted(done_executed_nodes))
1508472384365: received COMMIT|0|10.0.0.10|10.0.0.255|1508472384309|[977]|[] from 10.0.0.10
1508472384366: sent COMMIT|0|10.0.0.4|10.0.0.255|1508472384366|[1000]|['10.0.0.10'] to 10.0.0.255
1508472384426: received COMMIT|0|10.0.0.7|10.0.0.255|1508472384366|[967]|['10.0.0.10'] from 10.0.0.7
1508472384485: received COMMIT|0|10.0.0.8|10.0.0.255|1508472384421|[968]|['10.0.0.4'] from 10.0.0.8
1508472384502: received COMMIT|0|10.0.0.2|10.0.0.255|1508472384441|[968]|['10.0.0.7'] from 10.0.0.2
