node id,node ip,root,confirm time,commit time,finish time,sent packets,received packets
0,10.0.0.10,True,0,1508558393393,0,1,12
1,10.0.0.1,False,0,1508558393554,0,2,3
2,10.0.0.2,False,0,1508558393500,0,5,10
3,10.0.0.3,False,0,1508558393563,0,2,3
4,10.0.0.4,False,0,1508558393453,0,7,9
5,10.0.0.5,False,0,1508558393513,0,2,4
6,10.0.0.6,False,0,1508558393554,0,2,3
7,10.0.0.7,False,0,1508558393449,0,2,5
8,10.0.0.8,False,0,1508558393504,0,2,3
9,10.0.0.9,False,0,1508558393460,0,3,4
