log: node=2 ip=10.0.0.2
next_hop = 10.0.0.4
1508558393500: received COMMIT|0|10.0.0.7|10.0.0.255|1508558393450|[967]|['10.0.0.10'] from 10.0.0.7
1508558393503: sent COMMIT|0|10.0.0.2|10.0.0.255|1508558393503|[1000]|['10.0.0.7'] to 10.0.0.255
1508558393504: received COMMIT|0|10.0.0.4|10.0.0.255|1508558393453|[967]|['10.0.0.10'] from 10.0.0.4
1508558393561: received COMMIT|0|10.0.0.8|10.0.0.255|1508558393504|[968]|['10.0.0.4'] from 10.0.0.8
1508558393569: received COMMIT|0|10.0.0.5|10.0.0.255|1508558393513|[968]|['10.0.0.7'] from 10.0.0.5
1508558393605: received COMMIT|0|10.0.0.1|10.0.0.255|1508558393554|[968]|['10.0.0.2'] from 10.0.0.1
1508558393606: received COMMIT|0|10.0.0.6|10.0.0.255|1508558393554|[968]|['10.0.0.2'] from 10.0.0.6
1508558393635: received COMMIT|0|10.0.0.3|10.0.0.255|1508558393563|[968]|['10.0.0.2'] from 10.0.0.3
1508558393714: sent DONE|0|10.0.0.2|10.0.0.4|1508558393714|[100]|[] to 10.0.0.4
1508558393831: received DONE|0|10.0.0.6|10.0.0.2|1508558393761|[100]|[] from 10.0.0.6
['10.0.0.2', '10.0.0.6']: DONE_LIST(acked)
1508558393832: sent DONE|0|10.0.0.2|10.0.0.4|1508558393832|[100]|['10.0.0.2', '10.0.0.6'] to 10.0.0.4
1508558393832: received DONE|0|10.0.0.1|10.0.0.2|1508558393765|[100]|[] from 10.0.0.1
['10.0.0.2', '10.0.0.6', '10.0.0.1']: DONE_LIST(acked)
1508558393833: sent DONE|0|10.0.0.2|10.0.0.4|1508558393833|[100]|['10.0.0.2', '10.0.0.6', '10.0.0.1'] to 10.0.0.4
1508558393833: received DONE|0|10.0.0.3|10.0.0.2|1508558393782|[100]|[] from 10.0.0.3
['10.0.0.2', '10.0.0.6', '10.0.0.1', '10.0.0.3']: DONE_LIST(acked)
1508558393833: sent DONE|0|10.0.0.2|10.0.0.4|1508558393833|[100]|['10.0.0.2', '10.0.0.6', '10.0.0.1', '10.0.0.3'] to 10.0.0.4
10010  : current_millis - protocol_start_time: For non root node  
1508558394937 Routing Process Complete: ######################## : Forwarded packet originated from source 10.0.0.2to root node 
