10,0,b,unconditional,true,small,2034
10,0,b,unconditional,true,small,417
10,0,b,unconditional,true,small,403
10,0,b,unconditional,true,small,409
10,0,b,unconditional,true,small,453
10,0,b,unconditional,true,small,406
10,0,b,unconditional,true,small,417
10,0,b,unconditional,true,small,416
10,0,b,unconditional,true,small,408
10,0,b,unconditional,true,small,416
10,0,b,unconditional,true,small,2014
10,0,b,unconditional,true,small,448
10,0,b,unconditional,true,small,416
10,0,b,unconditional,true,small,417
10,0,b,unconditional,true,small,402
10,0,b,unconditional,true,small,425
10,0,b,unconditional,true,small,416
10,0,b,unconditional,true,small,410
10,0,b,unconditional,true,small,409
10,0,b,unconditional,true,small,415
10,0,b,unconditional,true,small,2049
10,0,b,unconditional,true,small,428
10,0,b,unconditional,true,small,412
10,0,b,unconditional,true,small,406
10,0,b,unconditional,true,small,423
10,0,b,unconditional,true,small,404
10,0,b,unconditional,true,small,442
10,0,b,unconditional,true,small,454
10,0,b,unconditional,true,small,444
10,0,b,unconditional,true,small,420
10,0,b,unconditional,true,small,2041
10,0,b,unconditional,true,small,413
10,0,b,unconditional,true,small,403
10,0,b,unconditional,true,small,410
10,0,b,unconditional,true,small,407
10,0,b,unconditional,true,small,414
10,0,b,unconditional,true,small,404
10,0,b,unconditional,true,small,431
10,0,b,unconditional,true,small,464
10,0,b,unconditional,true,small,416
10,0,b,unconditional,true,small,2016
10,0,b,unconditional,true,small,446
10,0,b,unconditional,true,small,423
10,0,b,unconditional,true,small,425
10,0,b,unconditional,true,small,418
10,0,b,unconditional,true,small,421
10,0,b,unconditional,true,small,424
10,0,b,unconditional,true,small,445
10,0,b,unconditional,true,small,441
10,0,b,unconditional,true,small,407
