1508134433229,COMMIT,10.0.0.10,10.0.0.255,1000
1508134433340,COMMIT,10.0.0.2,10.0.0.255,1000
1508134433391,COMMIT,10.0.0.3,10.0.0.255,1000
1508134433284,COMMIT,10.0.0.4,10.0.0.255,1000
1508134433333,COMMIT,10.0.0.5,10.0.0.255,1000
1508134433281,COMMIT,10.0.0.7,10.0.0.255,1000
1508134433348,COMMIT,10.0.0.8,10.0.0.255,1000
