node id,node ip,root,confirm time,commit time,finish time,sent packets,received packets
0,10.0.0.10,True,0,1496900395388,1496900395970,1,18
1,10.0.0.1,False,0,1496900395445,1496900395960,3,17
2,10.0.0.2,False,0,1496900395445,1496900396250,4,22
3,10.0.0.3,False,0,1496900395439,1496900396246,4,13
4,10.0.0.4,False,0,1496900395445,1496900395966,3,17
5,10.0.0.5,False,0,1496900395461,1496900395980,3,17
6,10.0.0.6,False,0,1496900395438,1496900396239,4,22
7,10.0.0.7,False,0,1496900395461,1496900395976,3,17
8,10.0.0.8,False,0,1496900395448,1496900396236,4,22
9,10.0.0.9,False,0,1496900395456,1496900396258,4,22
