node id,node ip,root,confirm time,commit time,finish time,sent packets,received packets
0,10.0.0.10,True,0,1508472595273,0,1,4
1,10.0.0.1,False,0,1508472595390,0,1,5
2,10.0.0.2,False,0,1508472595383,0,1,6
3,10.0.0.3,False,0,1508472595376,0,0,3
4,10.0.0.4,False,0,1508472595325,0,1,4
5,10.0.0.5,False,0,1508472595392,0,1,6
6,10.0.0.6,False,0,1508472595327,0,1,8
7,10.0.0.7,False,0,1508472595342,0,1,8
8,10.0.0.8,False,0,1508472595378,0,1,6
9,10.0.0.9,False,0,1508472595347,0,1,5
