1496899919260,COMMIT,10.0.0.255,1
1496899919479,DONE,10.0.0.255,1
1496899919758,DONE,10.0.0.255,1
1496899920030,DONE,10.0.0.255,1
1496899920312,DONE,10.0.0.255,1
1496899920535,DONE,10.0.0.255,1
1496899920823,DONE,10.0.0.255,1
1496899921043,DONE,10.0.0.255,1
1496899921550,DONE,10.0.0.255,1
