1496899919249,COMMIT,10.0.0.255,1
1496899919460,DONE,10.0.0.255,1
1496899919752,DONE,10.0.0.255,1
1496899920017,DONE,10.0.0.255,1
1496899920282,DONE,10.0.0.255,1
1496899920568,DONE,10.0.0.255,1
1496899920789,DONE,10.0.0.255,1
1496899921087,DONE,10.0.0.255,1
1496899921297,DONE,10.0.0.255,1
