10,0,a,unconditional,false,small,203
10,0,a,unconditional,false,small,210
10,0,a,unconditional,false,small,207
10,0,a,unconditional,false,small,205
10,0,a,unconditional,false,small,220
10,0,a,unconditional,false,small,210
10,0,a,unconditional,false,small,212
10,0,a,unconditional,false,small,206
10,0,a,unconditional,false,small,201
10,0,a,unconditional,false,small,205
10,0,a,unconditional,false,small,204
10,0,a,unconditional,false,small,204
10,0,a,unconditional,false,small,217
10,0,a,unconditional,false,small,208
10,0,a,unconditional,false,small,206
10,0,a,unconditional,false,small,239
10,0,a,unconditional,false,small,203
10,0,a,unconditional,false,small,209
10,0,a,unconditional,false,small,205
10,0,a,unconditional,false,small,213
10,0,a,unconditional,false,small,223
10,0,a,unconditional,false,small,208
10,0,a,unconditional,false,small,206
10,0,a,unconditional,false,small,202
10,0,a,unconditional,false,small,205
10,0,a,unconditional,false,small,206
10,0,a,unconditional,false,small,203
10,0,a,unconditional,false,small,212
10,0,a,unconditional,false,small,212
10,0,a,unconditional,false,small,207
