node id,node ip,root,confirm time,commit time,finish time,sent packets,received packets
0,10.0.0.10,True,0,1497156530176,1497156532676,1,15
1,10.0.0.1,False,0,1497156530359,1497156531835,6,6
2,10.0.0.2,False,0,1497156530304,1497156531619,1,27
3,10.0.0.3,False,0,1497156530363,1497156531855,1,14
4,10.0.0.4,False,0,1497156530227,1497156531839,3,15
5,10.0.0.5,False,0,1497156530286,1497156531843,6,17
6,10.0.0.6,False,0,1497156530351,1497156531849,4,13
7,10.0.0.7,False,0,1497156530231,1497156531881,6,17
8,10.0.0.8,False,0,1497156530298,1497156531876,7,5
9,10.0.0.9,False,0,1497156530244,1497156531838,6,13
