log: node=5 ip=10.0.0.5
1508037515174: received COMMIT|0|10.0.0.7|10.0.0.255|1508037515124|[1]|['10.0.0.10'] from 10.0.0.7
0: previous_node_hop_count
0: hop_count
1: after previous_node_hop_count
2: after hop_count
1508037515176: sent COMMIT|0|10.0.0.5|10.0.0.255|1508037515176|[1]|['10.0.0.7'] to 10.0.0.255
1508037515182: received COMMIT|0|10.0.0.9|10.0.0.255|1508037515132|[1]|['10.0.0.10'] from 10.0.0.9
1508037515248: received COMMIT|0|10.0.0.2|10.0.0.255|1508037515165|[1]|['10.0.0.4'] from 10.0.0.2
1508037515284: received COMMIT|0|10.0.0.6|10.0.0.255|1508037515228|[1]|['10.0.0.2'] from 10.0.0.6
1508037515392: sent DONE|0|10.0.0.5|10.0.0.255|1508037515392|[1]|[] to 10.0.0.255
2: DONE hop_count
0: DONE previous_node_hop_count_done
[]: DONE_LIST(acked)
1508037515392: received DONE|0|10.0.0.7|10.0.0.255|1508037515331|[1]|['10.0.0.10'] from 10.0.0.7
2: DONE hop_count
1: DONE previous_node_hop_count_done
['10.0.0.7', '10.0.0.10']: DONE_LIST(acked)
1508037515392: received DONE|0|10.0.0.9|10.0.0.255|1508037515340|[1]|[] from 10.0.0.9
2: DONE hop_count
1: DONE previous_node_hop_count_done
['10.0.0.7', '10.0.0.10', '10.0.0.9']: DONE_LIST(acked)
1508037515424: received DONE|0|10.0.0.2|10.0.0.255|1508037515366|[1]|['10.0.0.4'] from 10.0.0.2
2: DONE hop_count
2: DONE previous_node_hop_count_done
['10.0.0.7', '10.0.0.10', '10.0.0.9', '10.0.0.2', '10.0.0.4']: DONE_LIST(acked)
1508037515492: received DONE|0|10.0.0.6|10.0.0.255|1508037515429|[1]|['10.0.0.2', '10.0.0.4'] from 10.0.0.6
2: DONE hop_count
3: DONE previous_node_hop_count_done
['10.0.0.7', '10.0.0.10', '10.0.0.9', '10.0.0.2', '10.0.0.4', '10.0.0.6']: DONE_LIST(acked)
1508037515597: sent DONE|0|10.0.0.5|10.0.0.255|1508037515597|[1]|['10.0.0.7', '10.0.0.10', '10.0.0.9', '10.0.0.2', '10.0.0.4', '10.0.0.6'] to 10.0.0.255
1508037515597: rollout executed
['10.0.0.2', '10.0.0.6', '10.0.0.7', '10.0.0.9']str(sorted(neighbor_nodes))
['10.0.0.2', '10.0.0.6', '10.0.0.7', '10.0.0.9']str(sorted(executed_nodes))
['10.0.0.2', '10.0.0.6', '10.0.0.7', '10.0.0.9']str(sorted(done_executed_nodes))
