"nodes","loss","mode","condition","conf","size","packets"
10,0,a,unconditional,false,small,1
10,0,a,unconditional,false,small,1
10,0,a,unconditional,false,small,1
10,0,a,unconditional,false,small,0
10,0,a,unconditional,false,small,1
10,0,a,unconditional,false,small,1
10,0,a,unconditional,false,small,1
10,0,a,unconditional,false,small,1
10,0,a,unconditional,false,small,1
10,0,a,unconditional,false,small,1
10,0,a,unconditional,false,small,1
10,0,a,unconditional,false,small,1
10,0,a,unconditional,false,small,1
10,0,a,unconditional,false,small,1
10,0,a,unconditional,false,small,1
10,0,a,unconditional,false,small,0
10,0,a,unconditional,false,small,1
10,0,a,unconditional,false,small,1
10,0,a,unconditional,false,small,1
10,0,a,unconditional,false,small,0
10,0,a,unconditional,false,small,1
10,0,a,unconditional,false,small,1
10,0,a,unconditional,false,small,1
10,0,a,unconditional,false,small,1
10,0,a,unconditional,false,small,1
10,0,a,unconditional,false,small,1
10,0,a,unconditional,false,small,1
10,0,a,unconditional,false,small,1
10,0,a,unconditional,false,small,1
10,0,a,unconditional,false,small,0
