1508134146636,COMMIT,10.0.0.10,10.0.0.255,1000
1508134146753,COMMIT,10.0.0.2,10.0.0.255,1000
1508134146804,COMMIT,10.0.0.3,10.0.0.255,1000
1508134146702,COMMIT,10.0.0.4,10.0.0.255,1000
1508134146768,COMMIT,10.0.0.5,10.0.0.255,1000
1508134146691,COMMIT,10.0.0.7,10.0.0.255,1000
1508134146756,COMMIT,10.0.0.8,10.0.0.255,1000
