node id,node ip,root,confirm time,commit time,finish time,sent packets,received packets
0,10.0.0.10,True,0,1508037471707,1508037473740,2,9
1,10.0.0.1,False,0,1508037471884,1508037472309,2,6
2,10.0.0.2,False,0,1508037471827,1508037472272,2,15
3,10.0.0.3,False,0,1508037471890,1508037472297,2,6
4,10.0.0.4,False,0,1508037471760,1508037472176,3,8
5,10.0.0.5,False,0,1508037471820,1508037472236,3,8
6,10.0.0.6,False,0,1508037471879,1508037472302,2,7
7,10.0.0.7,False,0,1508037471776,1508037472192,3,10
8,10.0.0.8,False,0,1508037471840,1508037472280,2,7
9,10.0.0.9,False,0,1508037471767,1508037472182,3,6
