node id,node ip,root,confirm time,commit time,finish time,sent packets,received packets
0,10.0.0.10,True,0,1488342416943,1488342417372,2,6
1,10.0.0.1,False,0,1488342417113,1488342418533,7,12
2,10.0.0.2,False,0,1488342417080,1488342419164,10,17
3,10.0.0.3,False,0,1488342417128,1488342419190,10,3
4,10.0.0.4,False,0,1488342417000,1488342417437,2,12
5,10.0.0.5,False,0,1488342417063,1488342417488,2,12
6,10.0.0.6,False,0,1488342417080,1488342417502,2,8
7,10.0.0.7,False,0,1488342417016,1488342417437,2,12
8,10.0.0.8,False,0,1488342417064,1488342417492,2,6
9,10.0.0.9,False,0,1488342417006,1488342417424,2,8
