1508135104016,COMMIT,10.0.0.255,1000
1508135104228,COMMIT,10.0.0.255,1000
1508135104441,COMMIT,10.0.0.255,1000
1508135104644,COMMIT,10.0.0.255,1000
1508135104845,COMMIT,10.0.0.255,1000
1508135105065,COMMIT,10.0.0.255,1000
1508135105268,COMMIT,10.0.0.255,1000
1508135105472,COMMIT,10.0.0.255,1000
1508135105686,COMMIT,10.0.0.255,1000
1508135105889,COMMIT,10.0.0.255,1000
