log: node=6 ip=10.0.0.6
['10.0.0.2', '10.0.0.3', '10.0.0.4', '10.0.0.5', '10.0.0.7', '10.0.0.8']str(sorted(relay_nodes))
['10.0.0.2', '10.0.0.3', '10.0.0.4', '10.0.0.5', '10.0.0.7', '10.0.0.8']str(sorted(ngh_relay_nodes))
['10.0.0.1', '10.0.0.10', '10.0.0.2', '10.0.0.3', '10.0.0.4', '10.0.0.5', '10.0.0.7', '10.0.0.8', '10.0.0.9']str(sorted(neighbor_nodes))
[]str(sorted(executed_nodes))
[]str(sorted(done_executed_nodes))
1508135104024: received COMMIT|0|10.0.0.10|10.0.0.255|1508135103932|[977]|[] from 10.0.0.10
1508135104055: received COMMIT|0|10.0.0.2|10.0.0.255|1508135103983|[967]|['10.0.0.10'] from 10.0.0.2
1508135104058: received COMMIT|0|10.0.0.4|10.0.0.255|1508135103989|[967]|['10.0.0.10'] from 10.0.0.4
1508135104060: received COMMIT|0|10.0.0.7|10.0.0.255|1508135103990|[967]|['10.0.0.10'] from 10.0.0.7
1508135104061: received COMMIT|0|10.0.0.3|10.0.0.255|1508135103992|[967]|['10.0.0.10'] from 10.0.0.3
1508135104063: received COMMIT|0|10.0.0.8|10.0.0.255|1508135103992|[967]|['10.0.0.10'] from 10.0.0.8
1508135104074: received COMMIT|0|10.0.0.5|10.0.0.255|1508135104016|[967]|['10.0.0.10'] from 10.0.0.5
1508135104232: rollout executed
['10.0.0.1', '10.0.0.10', '10.0.0.2', '10.0.0.3', '10.0.0.4', '10.0.0.5', '10.0.0.7', '10.0.0.8', '10.0.0.9']str(sorted(neighbor_nodes))
['10.0.0.10', '10.0.0.2', '10.0.0.3', '10.0.0.4', '10.0.0.5', '10.0.0.7', '10.0.0.8']str(sorted(executed_nodes))
[]str(sorted(done_executed_nodes))
