1508135103983,COMMIT,10.0.0.255,1000
1508135104193,COMMIT,10.0.0.255,1000
1508135104400,COMMIT,10.0.0.255,1000
1508135104608,COMMIT,10.0.0.255,1000
1508135104809,COMMIT,10.0.0.255,1000
1508135105011,COMMIT,10.0.0.255,1000
1508135105212,COMMIT,10.0.0.255,1000
1508135105425,COMMIT,10.0.0.255,1000
1508135105628,COMMIT,10.0.0.255,1000
1508135105836,COMMIT,10.0.0.255,1000
