"nodes","loss","mode","condition","conf","size","executed"
10,0,b,unconditional,true,small,10
10,0,b,unconditional,true,small,10
10,0,b,unconditional,true,small,10
10,0,b,unconditional,true,small,10
10,0,b,unconditional,true,small,10
