node id,node ip,root,confirm time,commit time,finish time,sent packets,received packets
0,10.0.0.10,True,0,1508099116966,1508099117172,1,1
1,10.0.0.1,False,0,1508099117154,1508099117355,1,3
2,10.0.0.2,False,0,1508099117073,1508099117279,1,5
3,10.0.0.3,False,0,1508099117137,1508099117338,1,2
4,10.0.0.4,False,0,1508099117023,1508099117238,0,3
5,10.0.0.5,False,0,1508099117086,1508099117290,1,3
6,10.0.0.6,False,0,1508099117142,1508099117344,1,3
7,10.0.0.7,False,0,1508099117022,1508099117226,1,3
8,10.0.0.8,False,0,1508099117130,1508099117334,0,2
9,10.0.0.9,False,0,1508099117026,1508099117230,0,3
