node id,node ip,root,confirm time,commit time,finish time,sent packets,received packets
0,10.0.0.10,True,0,1508037182452,1508037184468,2,9
1,10.0.0.1,False,0,1508037182611,1508037183057,2,7
2,10.0.0.2,False,0,1508037182561,1508037182984,3,14
3,10.0.0.3,False,0,1508037182611,1508037183036,2,6
4,10.0.0.4,False,0,1508037182508,1508037182926,3,10
5,10.0.0.5,False,0,1508037182574,1508037182995,2,12
6,10.0.0.6,False,0,1508037182616,1508037183040,2,6
7,10.0.0.7,False,0,1508037182507,1508037182952,3,10
8,10.0.0.8,False,0,1508037182562,1508037183003,2,7
9,10.0.0.9,False,0,1508037182506,1508037182913,3,6
