1496981855636,COMMIT,10.0.0.255,1
1496981855852,DONE,10.0.0.255,1
1496981856155,DONE,10.0.0.255,1
1496981856420,DONE,10.0.0.255,1
1496981856696,DONE,10.0.0.255,1
1496981856937,DONE,10.0.0.255,1
1496981857264,DONE,10.0.0.255,1
1496981857472,DONE,10.0.0.255,1
