log: node=6 ip=10.0.0.6
1496981855734: received COMMIT|0|10.0.0.5|10.0.0.255|1496981855684|[1]|['10.0.0.9'] from 10.0.0.5
0: previous_node_hop_count
0: hop_count
2: after previous_node_hop_count
3: after hop_count
1496981855752: sent COMMIT|0|10.0.0.6|10.0.0.255|1496981855752|[1]|['10.0.0.5'] to 10.0.0.255
1496981855756: received COMMIT|0|10.0.0.2|10.0.0.255|1496981855697|[1]|['10.0.0.4'] from 10.0.0.2
1496981855856: received COMMIT|0|10.0.0.1|10.0.0.255|1496981855788|[1]|['10.0.0.2'] from 10.0.0.1
1496981855938: received DONE|0|10.0.0.5|10.0.0.255|1496981855888|[1]|[] from 10.0.0.5
3: DONE hop_count
2: DONE previous_node_hop_count_done
['10.0.0.5']: DONE_LIST(acked)
1496981856049: received DONE|0|10.0.0.1|10.0.0.255|1496981855995|[1]|[] from 10.0.0.1
3: DONE hop_count
3: DONE previous_node_hop_count_done
['10.0.0.5', '10.0.0.1']: DONE_LIST(acked)
1496981856174: received DONE|0|10.0.0.5|10.0.0.255|1496981856124|[1]|['10.0.0.9', '10.0.0.7'] from 10.0.0.5
3: DONE hop_count
2: DONE previous_node_hop_count_done
['10.0.0.5', '10.0.0.1', '10.0.0.9', '10.0.0.7']: DONE_LIST(acked)
1496981856258: received DONE|0|10.0.0.1|10.0.0.255|1496981856207|[1]|['10.0.0.3'] from 10.0.0.1
3: DONE hop_count
3: DONE previous_node_hop_count_done
['10.0.0.5', '10.0.0.1', '10.0.0.9', '10.0.0.7', '10.0.0.3']: DONE_LIST(acked)
1496981856496: sent DONE|0|10.0.0.6|10.0.0.255|1496981856496|[1]|['10.0.0.5', '10.0.0.1', '10.0.0.9', '10.0.0.7', '10.0.0.3'] to 10.0.0.255
3: DONE hop_count
3: DONE previous_node_hop_count_done
['10.0.0.5', '10.0.0.1', '10.0.0.9', '10.0.0.7', '10.0.0.3']: DONE_LIST(acked)
1496981856496: received DONE|0|10.0.0.5|10.0.0.255|1496981856424|[1]|['10.0.0.9', '10.0.0.7', '10.0.0.5', '10.0.0.4'] from 10.0.0.5
3: DONE hop_count
2: DONE previous_node_hop_count_done
['10.0.0.5', '10.0.0.1', '10.0.0.9', '10.0.0.7', '10.0.0.3', '10.0.0.4']: DONE_LIST(acked)
1496981856594: received DONE|0|10.0.0.1|10.0.0.255|1496981856544|[1]|['10.0.0.3', '10.0.0.8', '10.0.0.1'] from 10.0.0.1
3: DONE hop_count
3: DONE previous_node_hop_count_done
['10.0.0.5', '10.0.0.1', '10.0.0.9', '10.0.0.7', '10.0.0.3', '10.0.0.4', '10.0.0.8']: DONE_LIST(acked)
1496981856795: sent DONE|0|10.0.0.6|10.0.0.255|1496981856795|[1]|['10.0.0.5', '10.0.0.1', '10.0.0.9', '10.0.0.7', '10.0.0.3', '10.0.0.4', '10.0.0.8'] to 10.0.0.255
3: DONE hop_count
3: DONE previous_node_hop_count_done
['10.0.0.5', '10.0.0.1', '10.0.0.9', '10.0.0.7', '10.0.0.3', '10.0.0.4', '10.0.0.8']: DONE_LIST(acked)
1496981856848: received DONE|0|10.0.0.1|10.0.0.255|1496981856779|[1]|['10.0.0.3', '10.0.0.8', '10.0.0.1', '10.0.0.6', '10.0.0.5', '10.0.0.9', '10.0.0.7'] from 10.0.0.1
3: DONE hop_count
3: DONE previous_node_hop_count_done
['10.0.0.5', '10.0.0.1', '10.0.0.9', '10.0.0.7', '10.0.0.3', '10.0.0.4', '10.0.0.8', '10.0.0.6']: DONE_LIST(acked)
1496981857053: sent DONE|0|10.0.0.6|10.0.0.255|1496981857053|[1]|['10.0.0.5', '10.0.0.1', '10.0.0.9', '10.0.0.7', '10.0.0.3', '10.0.0.4', '10.0.0.8', '10.0.0.6'] to 10.0.0.255
3: DONE hop_count
3: DONE previous_node_hop_count_done
['10.0.0.5', '10.0.0.1', '10.0.0.9', '10.0.0.7', '10.0.0.3', '10.0.0.4', '10.0.0.8', '10.0.0.6']: DONE_LIST(acked)
1496981857152: received DONE|0|10.0.0.1|10.0.0.255|1496981857088|[1]|['10.0.0.3', '10.0.0.8', '10.0.0.1', '10.0.0.6', '10.0.0.5', '10.0.0.9', '10.0.0.7', '10.0.0.4'] from 10.0.0.1
3: DONE hop_count
3: DONE previous_node_hop_count_done
['10.0.0.5', '10.0.0.1', '10.0.0.9', '10.0.0.7', '10.0.0.3', '10.0.0.4', '10.0.0.8', '10.0.0.6']: DONE_LIST(acked)
1496981857360: sent DONE|0|10.0.0.6|10.0.0.255|1496981857360|[1]|['10.0.0.5', '10.0.0.1', '10.0.0.9', '10.0.0.7', '10.0.0.3', '10.0.0.4', '10.0.0.8', '10.0.0.6'] to 10.0.0.255
3: DONE hop_count
3: DONE previous_node_hop_count_done
['10.0.0.5', '10.0.0.1', '10.0.0.9', '10.0.0.7', '10.0.0.3', '10.0.0.4', '10.0.0.8', '10.0.0.6']: DONE_LIST(acked)
1496981857388: received DONE|0|10.0.0.1|10.0.0.255|1496981857329|[1]|['10.0.0.3', '10.0.0.8', '10.0.0.1', '10.0.0.6', '10.0.0.5', '10.0.0.9', '10.0.0.7', '10.0.0.4'] from 10.0.0.1
3: DONE hop_count
3: DONE previous_node_hop_count_done
['10.0.0.5', '10.0.0.1', '10.0.0.9', '10.0.0.7', '10.0.0.3', '10.0.0.4', '10.0.0.8', '10.0.0.6']: DONE_LIST(acked)
1496981857591: sent DONE|0|10.0.0.6|10.0.0.255|1496981857591|[1]|['10.0.0.5', '10.0.0.1', '10.0.0.9', '10.0.0.7', '10.0.0.3', '10.0.0.4', '10.0.0.8', '10.0.0.6'] to 10.0.0.255
1496981857592: rollout executed
[]str(sorted(neighbor_nodes))
['10.0.0.1', '10.0.0.2', '10.0.0.5']str(sorted(executed_nodes))
['10.0.0.1', '10.0.0.5']str(sorted(done_executed_nodes))
