log: node=5 ip=10.0.0.5
next_hop = 10.0.0.9
1497329813800: received COMMIT|0|10.0.0.9|10.0.0.255|1497329813739|[967]|['10.0.0.10'] from 10.0.0.9
1497329813801: sent COMMIT|0|10.0.0.5|10.0.0.255|1497329813801|[1000]|['10.0.0.9'] to 10.0.0.255
1497329813801: received COMMIT|0|10.0.0.7|10.0.0.255|1497329813750|[967]|['10.0.0.10'] from 10.0.0.7
1497329813882: received COMMIT|0|10.0.0.2|10.0.0.255|1497329813826|[968]|['10.0.0.7'] from 10.0.0.2
1497329813936: received COMMIT|0|10.0.0.6|10.0.0.255|1497329813856|[968]|['10.0.0.5'] from 10.0.0.6
1497329814065: sent DONE|0|10.0.0.5|10.0.0.9|1497329814065|[100]|[] to 10.0.0.9
1497329814220: received DONE|0|10.0.0.6|10.0.0.5|1497329814070|[100]|[] from 10.0.0.6
['10.0.0.5', '10.0.0.6']: DONE_LIST(acked)
1497329814222: sent DONE|0|10.0.0.5|10.0.0.9|1497329814222|[100]|['10.0.0.5', '10.0.0.6'] to 10.0.0.9
1497329814223: received DONE|0|10.0.0.2|10.0.0.5|1497329814028|[100]|[] from 10.0.0.2
['10.0.0.5', '10.0.0.6', '10.0.0.2']: DONE_LIST(acked)
1497329814223: sent DONE|0|10.0.0.5|10.0.0.9|1497329814223|[100]|['10.0.0.5', '10.0.0.6', '10.0.0.2'] to 10.0.0.9
1497329814303: received DONE|0|10.0.0.2|10.0.0.5|1497329814240|[100]|['10.0.0.2', '10.0.0.3'] from 10.0.0.2
['10.0.0.5', '10.0.0.6', '10.0.0.2', '10.0.0.3']: DONE_LIST(acked)
1497329814304: sent DONE|0|10.0.0.5|10.0.0.9|1497329814304|[100]|['10.0.0.5', '10.0.0.6', '10.0.0.2', '10.0.0.3'] to 10.0.0.9
1497329814340: received DONE|0|10.0.0.2|10.0.0.5|1497329814272|[100]|['10.0.0.2', '10.0.0.3', '10.0.0.1'] from 10.0.0.2
['10.0.0.5', '10.0.0.6', '10.0.0.2', '10.0.0.3', '10.0.0.1']: DONE_LIST(acked)
1497329814341: sent DONE|0|10.0.0.5|10.0.0.9|1497329814341|[100]|['10.0.0.5', '10.0.0.6', '10.0.0.2', '10.0.0.3', '10.0.0.1'] to 10.0.0.9
10003  : current_millis - protocol_start_time: For non root node  
1497329815527 Routing Process Complete: ######################## : Forwarded packet originated from source 10.0.0.5to root node 
