1508134126732,COMMIT,10.0.0.10,10.0.0.255,1000
1508134126849,COMMIT,10.0.0.2,10.0.0.255,1000
1508134126904,COMMIT,10.0.0.3,10.0.0.255,1000
1508134126792,COMMIT,10.0.0.4,10.0.0.255,1000
1508134126865,COMMIT,10.0.0.5,10.0.0.255,1000
1508134126800,COMMIT,10.0.0.7,10.0.0.255,1000
1508134126860,COMMIT,10.0.0.8,10.0.0.255,1000
